Synthese2/myAddNbitstestbench.vcd
$date
  Mon Feb 17 12:14:00 2025
$end
$version
  GHDL v0
$end
$timescale
  1 fs
$end
$var reg 3 ! e1_sim[2:0] $end
$var reg 3 " e2_sim[2:0] $end
$var reg 3 # s1_sim[2:0] $end
$var reg 1 $ c_in_sim $end
$var reg 1 % c_out_sim $end
$scope module myaddnbitsundertest $end
$var reg 3 & e1[2:0] $end
$var reg 3 ' e2[2:0] $end
$var reg 1 ( c_in $end
$var reg 3 ) s1[2:0] $end
$var reg 1 * c_out $end
$var reg 4 + my_e1[3:0] $end
$var reg 4 , my_e2[3:0] $end
$var reg 4 - my_c_in[3:0] $end
$var reg 4 . my_s1[3:0] $end
$upscope $end
$enddefinitions $end
#0
b000 !
b000 "
b000 #
0$
0%
b000 &
b000 '
0(
b000 )
0*
b0000 +
b0000 ,
b0000 -
b0000 .
#100000000000
b001 #
1$
1(
b001 )
b0001 -
b0001 .
#200000000000
b001 "
0$
b001 '
0(
b0001 ,
b0000 -
#300000000000
b010 #
1$
1(
b010 )
b0001 -
b0010 .
#400000000000
b010 "
0$
b010 '
0(
b0010 ,
b0000 -
#500000000000
b011 #
1$
1(
b011 )
b0001 -
b0011 .
#600000000000
b011 "
0$
b011 '
0(
b0011 ,
b0000 -
#700000000000
b100 #
1$
1(
b100 )
b0001 -
b0100 .
#800000000000
b100 "
0$
b100 '
0(
b0100 ,
b0000 -
#900000000000
b101 #
1$
1(
b101 )
b0001 -
b0101 .
#1000000000000
b101 "
0$
b101 '
0(
b0101 ,
b0000 -
#1100000000000
b110 #
1$
1(
b110 )
b0001 -
b0110 .
#1200000000000
b110 "
0$
b110 '
0(
b0110 ,
b0000 -
#1300000000000
b111 #
1$
1(
b111 )
b0001 -
b0111 .
#1400000000000
b111 "
0$
b111 '
0(
b0111 ,
b0000 -
#1500000000000
b000 #
1$
1%
1(
b000 )
1*
b0001 -
b1000 .
#1600000000000
b001 !
b000 "
b001 #
0$
0%
b001 &
b000 '
0(
b001 )
0*
b0001 +
b0000 ,
b0000 -
b0001 .
#1700000000000
b010 #
1$
1(
b010 )
b0001 -
b0010 .
#1800000000000
b001 "
0$
b001 '
0(
b0001 ,
b0000 -
#1900000000000
b011 #
1$
1(
b011 )
b0001 -
b0011 .
#2000000000000
b010 "
0$
b010 '
0(
b0010 ,
b0000 -
#2100000000000
b100 #
1$
1(
b100 )
b0001 -
b0100 .
#2200000000000
b011 "
0$
b011 '
0(
b0011 ,
b0000 -
#2300000000000
b101 #
1$
1(
b101 )
b0001 -
b0101 .
#2400000000000
b100 "
0$
b100 '
0(
b0100 ,
b0000 -
#2500000000000
b110 #
1$
1(
b110 )
b0001 -
b0110 .
#2600000000000
b101 "
0$
b101 '
0(
b0101 ,
b0000 -
#2700000000000
b111 #
1$
1(
b111 )
b0001 -
b0111 .
#2800000000000
b110 "
0$
b110 '
0(
b0110 ,
b0000 -
#2900000000000
b000 #
1$
1%
1(
b000 )
1*
b0001 -
b1000 .
#3000000000000
b111 "
0$
b111 '
0(
b0111 ,
b0000 -
#3100000000000
b001 #
1$
1(
b001 )
b0001 -
b1001 .
#3200000000000
b010 !
b000 "
b010 #
0$
0%
b010 &
b000 '
0(
b010 )
0*
b0010 +
b0000 ,
b0000 -
b0010 .
#3300000000000
b011 #
1$
1(
b011 )
b0001 -
b0011 .
#3400000000000
b001 "
0$
b001 '
0(
b0001 ,
b0000 -
#3500000000000
b100 #
1$
1(
b100 )
b0001 -
b0100 .
#3600000000000
b010 "
0$
b010 '
0(
b0010 ,
b0000 -
#3700000000000
b101 #
1$
1(
b101 )
b0001 -
b0101 .
#3800000000000
b011 "
0$
b011 '
0(
b0011 ,
b0000 -
#3900000000000
b110 #
1$
1(
b110 )
b0001 -
b0110 .
#4000000000000
b100 "
0$
b100 '
0(
b0100 ,
b0000 -
#4100000000000
b111 #
1$
1(
b111 )
b0001 -
b0111 .
#4200000000000
b101 "
0$
b101 '
0(
b0101 ,
b0000 -
#4300000000000
b000 #
1$
1%
1(
b000 )
1*
b0001 -
b1000 .
#4400000000000
b110 "
0$
b110 '
0(
b0110 ,
b0000 -
#4500000000000
b001 #
1$
1(
b001 )
b0001 -
b1001 .
#4600000000000
b111 "
0$
b111 '
0(
b0111 ,
b0000 -
#4700000000000
b010 #
1$
1(
b010 )
b0001 -
b1010 .
#4800000000000
b011 !
b000 "
b011 #
0$
0%
b011 &
b000 '
0(
b011 )
0*
b0011 +
b0000 ,
b0000 -
b0011 .
#4900000000000
b100 #
1$
1(
b100 )
b0001 -
b0100 .
#5000000000000
b001 "
0$
b001 '
0(
b0001 ,
b0000 -
#5100000000000
b101 #
1$
1(
b101 )
b0001 -
b0101 .
#5200000000000
b010 "
0$
b010 '
0(
b0010 ,
b0000 -
#5300000000000
b110 #
1$
1(
b110 )
b0001 -
b0110 .
#5400000000000
b011 "
0$
b011 '
0(
b0011 ,
b0000 -
#5500000000000
b111 #
1$
1(
b111 )
b0001 -
b0111 .
#5600000000000
b100 "
0$
b100 '
0(
b0100 ,
b0000 -
#5700000000000
b000 #
1$
1%
1(
b000 )
1*
b0001 -
b1000 .
#5800000000000
b101 "
0$
b101 '
0(
b0101 ,
b0000 -
#5900000000000
b001 #
1$
1(
b001 )
b0001 -
b1001 .
#6000000000000
b110 "
0$
b110 '
0(
b0110 ,
b0000 -
#6100000000000
b010 #
1$
1(
b010 )
b0001 -
b1010 .
#6200000000000
b111 "
0$
b111 '
0(
b0111 ,
b0000 -
#6300000000000
b011 #
1$
1(
b011 )
b0001 -
b1011 .
#6400000000000
b100 !
b000 "
b100 #
0$
0%
b100 &
b000 '
0(
b100 )
0*
b0100 +
b0000 ,
b0000 -
b0100 .
#6500000000000
b101 #
1$
1(
b101 )
b0001 -
b0101 .
#6600000000000
b001 "
0$
b001 '
0(
b0001 ,
b0000 -
#6700000000000
b110 #
1$
1(
b110 )
b0001 -
b0110 .
#6800000000000
b010 "
0$
b010 '
0(
b0010 ,
b0000 -
#6900000000000
b111 #
1$
1(
b111 )
b0001 -
b0111 .
#7000000000000
b011 "
0$
b011 '
0(
b0011 ,
b0000 -
#7100000000000
b000 #
1$
1%
1(
b000 )
1*
b0001 -
b1000 .
#7200000000000
b100 "
0$
b100 '
0(
b0100 ,
b0000 -
#7300000000000
b001 #
1$
1(
b001 )
b0001 -
b1001 .
#7400000000000
b101 "
0$
b101 '
0(
b0101 ,
b0000 -
#7500000000000
b010 #
1$
1(
b010 )
b0001 -
b1010 .
#7600000000000
b110 "
0$
b110 '
0(
b0110 ,
b0000 -
#7700000000000
b011 #
1$
1(
b011 )
b0001 -
b1011 .
#7800000000000
b111 "
0$
b111 '
0(
b0111 ,
b0000 -
#7900000000000
b100 #
1$
1(
b100 )
b0001 -
b1100 .
#8000000000000
b101 !
b000 "
b101 #
0$
0%
b101 &
b000 '
0(
b101 )
0*
b0101 +
b0000 ,
b0000 -
b0101 .
#8100000000000
b110 #
1$
1(
b110 )
b0001 -
b0110 .
#8200000000000
b001 "
0$
b001 '
0(
b0001 ,
b0000 -
#8300000000000
b111 #
1$
1(
b111 )
b0001 -
b0111 .
#8400000000000
b010 "
0$
b010 '
0(
b0010 ,
b0000 -
#8500000000000
b000 #
1$
1%
1(
b000 )
1*
b0001 -
b1000 .
#8600000000000
b011 "
0$
b011 '
0(
b0011 ,
b0000 -
#8700000000000
b001 #
1$
1(
b001 )
b0001 -
b1001 .
#8800000000000
b100 "
0$
b100 '
0(
b0100 ,
b0000 -
#8900000000000
b010 #
1$
1(
b010 )
b0001 -
b1010 .
#9000000000000
b101 "
0$
b101 '
0(
b0101 ,
b0000 -
#9100000000000
b011 #
1$
1(
b011 )
b0001 -
b1011 .
#9200000000000
b110 "
0$
b110 '
0(
b0110 ,
b0000 -
#9300000000000
b100 #
1$
1(
b100 )
b0001 -
b1100 .
#9400000000000
b111 "
0$
b111 '
0(
b0111 ,
b0000 -
#9500000000000
b101 #
1$
1(
b101 )
b0001 -
b1101 .
#9600000000000
b110 !
b000 "
b110 #
0$
0%
b110 &
b000 '
0(
b110 )
0*
b0110 +
b0000 ,
b0000 -
b0110 .
#9700000000000
b111 #
1$
1(
b111 )
b0001 -
b0111 .
#9800000000000
b001 "
0$
b001 '
0(
b0001 ,
b0000 -
#9900000000000
b000 #
1$
1%
1(
b000 )
1*
b0001 -
b1000 .
#10000000000000
b010 "
0$
b010 '
0(
b0010 ,
b0000 -
#10100000000000
b001 #
1$
1(
b001 )
b0001 -
b1001 .
#10200000000000
b011 "
0$
b011 '
0(
b0011 ,
b0000 -
#10300000000000
b010 #
1$
1(
b010 )
b0001 -
b1010 .
#10400000000000
b100 "
0$
b100 '
0(
b0100 ,
b0000 -
#10500000000000
b011 #
1$
1(
b011 )
b0001 -
b1011 .
#10600000000000
b101 "
0$
b101 '
0(
b0101 ,
b0000 -
#10700000000000
b100 #
1$
1(
b100 )
b0001 -
b1100 .
#10800000000000
b110 "
0$
b110 '
0(
b0110 ,
b0000 -
#10900000000000
b101 #
1$
1(
b101 )
b0001 -
b1101 .
#11000000000000
b111 "
0$
b111 '
0(
b0111 ,
b0000 -
#11100000000000
b110 #
1$
1(
b110 )
b0001 -
b1110 .
#11200000000000
b111 !
b000 "
b111 #
0$
0%
b111 &
b000 '
0(
b111 )
0*
b0111 +
b0000 ,
b0000 -
b0111 .
#11300000000000
b000 #
1$
1%
1(
b000 )
1*
b0001 -
b1000 .
#11400000000000
b001 "
0$
b001 '
0(
b0001 ,
b0000 -
#11500000000000
b001 #
1$
1(
b001 )
b0001 -
b1001 .
#11600000000000
b010 "
0$
b010 '
0(
b0010 ,
b0000 -
#11700000000000
b010 #
1$
1(
b010 )
b0001 -
b1010 .
#11800000000000
b011 "
0$
b011 '
0(
b0011 ,
b0000 -
#11900000000000
b011 #
1$
1(
b011 )
b0001 -
b1011 .
#12000000000000
b100 "
0$
b100 '
0(
b0100 ,
b0000 -
#12100000000000
b100 #
1$
1(
b100 )
b0001 -
b1100 .
#12200000000000
b101 "
0$
b101 '
0(
b0101 ,
b0000 -
#12300000000000
b101 #
1$
1(
b101 )
b0001 -
b1101 .
#12400000000000
b110 "
0$
b110 '
0(
b0110 ,
b0000 -
#12500000000000
b110 #
1$
1(
b110 )
b0001 -
b1110 .
#12600000000000
b111 "
0$
b111 '
0(
b0111 ,
b0000 -
#12700000000000
b111 #
1$
1(
b111 )
b0001 -
b1111 .
