buffer/chronograme.vcd
$date
  Mon Mar 31 08:38:51 2025
$end
$version
  GHDL v0
$end
$timescale
  1 fs
$end
$var reg 4 ! e1_sim[3:0] $end
$var reg 4 " s1_sim[3:0] $end
$var reg 1 # reset_sim $end
$var reg 1 $ preset_sim $end
$var reg 1 % clock_sim $end
$scope module mycomponentbuffernbits01undertest $end
$var reg 4 & e1[3:0] $end
$var reg 1 ' reset $end
$var reg 1 ( preset $end
$var reg 1 ) clock $end
$var reg 4 * s1[3:0] $end
$upscope $end
$enddefinitions $end
#0
b0000 !
bUUUU "
0#
0$
0%
b0000 &
0'
0(
0)
bUUUU *
#20000000000
b0000 "
1%
1)
b0000 *
#25000000000
0%
0)
#45000000000
1%
1)
#50000000000
0%
0)
#70000000000
1%
1)
#75000000000
0%
0)
#95000000000
1%
1)
#100000000000
b0001 !
0%
b0001 &
0)
#120000000000
b0001 "
1%
1)
b0001 *
#125000000000
0%
0)
#145000000000
1%
1)
#150000000000
0%
0)
#170000000000
1%
1)
#175000000000
0%
0)
#195000000000
1%
1)
#200000000000
b0010 !
0%
b0010 &
0)
#220000000000
b0010 "
1%
1)
b0010 *
#225000000000
0%
0)
#245000000000
1%
1)
#250000000000
0%
0)
#270000000000
1%
1)
#275000000000
0%
0)
#295000000000
1%
1)
#300000000000
b0011 !
0%
b0011 &
0)
#320000000000
b0011 "
1%
1)
b0011 *
#325000000000
0%
0)
#345000000000
1%
1)
#350000000000
0%
0)
#370000000000
1%
1)
#375000000000
0%
0)
#395000000000
1%
1)
#400000000000
b0100 !
0%
b0100 &
0)
#420000000000
b0100 "
1%
1)
b0100 *
#425000000000
0%
0)
#445000000000
1%
1)
#450000000000
0%
0)
#470000000000
1%
1)
#475000000000
0%
0)
#495000000000
1%
1)
#500000000000
b0101 !
0%
b0101 &
0)
#520000000000
b0101 "
1%
1)
b0101 *
#525000000000
0%
0)
#545000000000
1%
1)
#550000000000
0%
0)
#570000000000
1%
1)
#575000000000
0%
0)
#595000000000
1%
1)
#600000000000
b0110 !
0%
b0110 &
0)
#620000000000
b0110 "
1%
1)
b0110 *
#625000000000
0%
0)
#645000000000
1%
1)
#650000000000
0%
0)
#670000000000
1%
1)
#675000000000
0%
0)
#695000000000
1%
1)
#700000000000
b0111 !
0%
b0111 &
0)
#720000000000
b0111 "
1%
1)
b0111 *
#725000000000
0%
0)
#745000000000
1%
1)
#750000000000
0%
0)
#770000000000
1%
1)
#775000000000
0%
0)
#795000000000
1%
1)
#800000000000
b1000 !
0%
b1000 &
0)
#820000000000
b1000 "
1%
1)
b1000 *
#825000000000
0%
0)
#845000000000
1%
1)
#850000000000
0%
0)
#870000000000
1%
1)
#875000000000
0%
0)
#895000000000
1%
1)
#900000000000
b1001 !
0%
b1001 &
0)
#920000000000
b1001 "
1%
1)
b1001 *
#925000000000
0%
0)
#945000000000
1%
1)
#950000000000
0%
0)
#970000000000
1%
1)
#975000000000
0%
0)
#995000000000
1%
1)
#1000000000000
b1010 !
0%
b1010 &
0)
#1020000000000
b1010 "
1%
1)
b1010 *
#1025000000000
0%
0)
#1045000000000
1%
1)
#1050000000000
0%
0)
#1070000000000
1%
1)
#1075000000000
0%
0)
#1095000000000
1%
1)
#1100000000000
b1011 !
0%
b1011 &
0)
#1120000000000
b1011 "
1%
1)
b1011 *
#1125000000000
0%
0)
#1145000000000
1%
1)
#1150000000000
0%
0)
#1170000000000
1%
1)
#1175000000000
0%
0)
#1195000000000
1%
1)
#1200000000000
b1100 !
0%
b1100 &
0)
#1220000000000
b1100 "
1%
1)
b1100 *
#1225000000000
0%
0)
#1245000000000
1%
1)
#1250000000000
0%
0)
#1270000000000
1%
1)
#1275000000000
0%
0)
#1295000000000
1%
1)
#1300000000000
b1101 !
0%
b1101 &
0)
#1320000000000
b1101 "
1%
1)
b1101 *
#1325000000000
0%
0)
#1345000000000
1%
1)
#1350000000000
0%
0)
#1370000000000
1%
1)
#1375000000000
0%
0)
#1395000000000
1%
1)
#1400000000000
b1110 !
0%
b1110 &
0)
#1420000000000
b1110 "
1%
1)
b1110 *
#1425000000000
0%
0)
#1445000000000
1%
1)
#1450000000000
0%
0)
#1470000000000
1%
1)
#1475000000000
0%
0)
#1495000000000
1%
1)
#1500000000000
b1111 !
0%
b1111 &
0)
#1520000000000
b1111 "
1%
1)
b1111 *
#1525000000000
0%
0)
#1545000000000
1%
1)
#1550000000000
0%
0)
#1570000000000
1%
1)
#1575000000000
0%
0)
#1595000000000
1%
1)
#1600000000000
b0000 !
1$
0%
b0000 &
1(
0)
#1620000000000
1%
1)
#1625000000000
0%
0)
#1645000000000
1%
1)
#1650000000000
0%
0)
#1670000000000
1%
1)
#1675000000000
0%
0)
#1695000000000
1%
1)
#1700000000000
b0001 !
0%
b0001 &
0)
#1720000000000
1%
1)
#1725000000000
0%
0)
#1745000000000
1%
1)
#1750000000000
0%
0)
#1770000000000
1%
1)
#1775000000000
0%
0)
#1795000000000
1%
1)
#1800000000000
b0010 !
0%
b0010 &
0)
#1820000000000
1%
1)
#1825000000000
0%
0)
#1845000000000
1%
1)
#1850000000000
0%
0)
#1870000000000
1%
1)
#1875000000000
0%
0)
#1895000000000
1%
1)
#1900000000000
b0011 !
0%
b0011 &
0)
#1920000000000
1%
1)
#1925000000000
0%
0)
#1945000000000
1%
1)
#1950000000000
0%
0)
#1970000000000
1%
1)
#1975000000000
0%
0)
#1995000000000
1%
1)
#2000000000000
b0100 !
0%
b0100 &
0)
#2020000000000
1%
1)
#2025000000000
0%
0)
#2045000000000
1%
1)
#2050000000000
0%
0)
#2070000000000
1%
1)
#2075000000000
0%
0)
#2095000000000
1%
1)
#2100000000000
b0101 !
0%
b0101 &
0)
#2120000000000
1%
1)
#2125000000000
0%
0)
#2145000000000
1%
1)
#2150000000000
0%
0)
#2170000000000
1%
1)
#2175000000000
0%
0)
#2195000000000
1%
1)
#2200000000000
b0110 !
0%
b0110 &
0)
#2220000000000
1%
1)
#2225000000000
0%
0)
#2245000000000
1%
1)
#2250000000000
0%
0)
#2270000000000
1%
1)
#2275000000000
0%
0)
#2295000000000
1%
1)
#2300000000000
b0111 !
0%
b0111 &
0)
#2320000000000
1%
1)
#2325000000000
0%
0)
#2345000000000
1%
1)
#2350000000000
0%
0)
#2370000000000
1%
1)
#2375000000000
0%
0)
#2395000000000
1%
1)
#2400000000000
b1000 !
0%
b1000 &
0)
#2420000000000
1%
1)
#2425000000000
0%
0)
#2445000000000
1%
1)
#2450000000000
0%
0)
#2470000000000
1%
1)
#2475000000000
0%
0)
#2495000000000
1%
1)
#2500000000000
b1001 !
0%
b1001 &
0)
#2520000000000
1%
1)
#2525000000000
0%
0)
#2545000000000
1%
1)
#2550000000000
0%
0)
#2570000000000
1%
1)
#2575000000000
0%
0)
#2595000000000
1%
1)
#2600000000000
b1010 !
0%
b1010 &
0)
#2620000000000
1%
1)
#2625000000000
0%
0)
#2645000000000
1%
1)
#2650000000000
0%
0)
#2670000000000
1%
1)
#2675000000000
0%
0)
#2695000000000
1%
1)
#2700000000000
b1011 !
0%
b1011 &
0)
#2720000000000
1%
1)
#2725000000000
0%
0)
#2745000000000
1%
1)
#2750000000000
0%
0)
#2770000000000
1%
1)
#2775000000000
0%
0)
#2795000000000
1%
1)
#2800000000000
b1100 !
0%
b1100 &
0)
#2820000000000
1%
1)
#2825000000000
0%
0)
#2845000000000
1%
1)
#2850000000000
0%
0)
#2870000000000
1%
1)
#2875000000000
0%
0)
#2895000000000
1%
1)
#2900000000000
b1101 !
0%
b1101 &
0)
#2920000000000
1%
1)
#2925000000000
0%
0)
#2945000000000
1%
1)
#2950000000000
0%
0)
#2970000000000
1%
1)
#2975000000000
0%
0)
#2995000000000
1%
1)
#3000000000000
b1110 !
0%
b1110 &
0)
#3020000000000
1%
1)
#3025000000000
0%
0)
#3045000000000
1%
1)
#3050000000000
0%
0)
#3070000000000
1%
1)
#3075000000000
0%
0)
#3095000000000
1%
1)
#3100000000000
b1111 !
0%
b1111 &
0)
#3120000000000
1%
1)
#3125000000000
0%
0)
#3145000000000
1%
1)
#3150000000000
0%
0)
#3170000000000
1%
1)
#3175000000000
0%
0)
#3195000000000
1%
1)
#3200000000000
b0000 !
b0000 "
1#
0$
0%
b0000 &
1'
0(
0)
b0000 *
#3220000000000
1%
1)
#3225000000000
0%
0)
#3245000000000
1%
1)
#3250000000000
0%
0)
#3270000000000
1%
1)
#3275000000000
0%
0)
#3295000000000
1%
1)
#3300000000000
b0001 !
0%
b0001 &
0)
#3320000000000
1%
1)
#3325000000000
0%
0)
#3345000000000
1%
1)
#3350000000000
0%
0)
#3370000000000
1%
1)
#3375000000000
0%
0)
#3395000000000
1%
1)
#3400000000000
b0010 !
0%
b0010 &
0)
#3420000000000
1%
1)
#3425000000000
0%
0)
#3445000000000
1%
1)
#3450000000000
0%
0)
#3470000000000
1%
1)
#3475000000000
0%
0)
#3495000000000
1%
1)
#3500000000000
b0011 !
0%
b0011 &
0)
#3520000000000
1%
1)
#3525000000000
0%
0)
#3545000000000
1%
1)
#3550000000000
0%
0)
#3570000000000
1%
1)
#3575000000000
0%
0)
#3595000000000
1%
1)
#3600000000000
b0100 !
0%
b0100 &
0)
#3620000000000
1%
1)
#3625000000000
0%
0)
#3645000000000
1%
1)
#3650000000000
0%
0)
#3670000000000
1%
1)
#3675000000000
0%
0)
#3695000000000
1%
1)
#3700000000000
b0101 !
0%
b0101 &
0)
#3720000000000
1%
1)
#3725000000000
0%
0)
#3745000000000
1%
1)
#3750000000000
0%
0)
#3770000000000
1%
1)
#3775000000000
0%
0)
#3795000000000
1%
1)
#3800000000000
b0110 !
0%
b0110 &
0)
#3820000000000
1%
1)
#3825000000000
0%
0)
#3845000000000
1%
1)
#3850000000000
0%
0)
#3870000000000
1%
1)
#3875000000000
0%
0)
#3895000000000
1%
1)
#3900000000000
b0111 !
0%
b0111 &
0)
#3920000000000
1%
1)
#3925000000000
0%
0)
#3945000000000
1%
1)
#3950000000000
0%
0)
#3970000000000
1%
1)
#3975000000000
0%
0)
#3995000000000
1%
1)
#4000000000000
b1000 !
0%
b1000 &
0)
#4020000000000
1%
1)
#4025000000000
0%
0)
#4045000000000
1%
1)
#4050000000000
0%
0)
#4070000000000
1%
1)
#4075000000000
0%
0)
#4095000000000
1%
1)
#4100000000000
b1001 !
0%
b1001 &
0)
#4120000000000
1%
1)
#4125000000000
0%
0)
#4145000000000
1%
1)
#4150000000000
0%
0)
#4170000000000
1%
1)
#4175000000000
0%
0)
#4195000000000
1%
1)
#4200000000000
b1010 !
0%
b1010 &
0)
#4220000000000
1%
1)
#4225000000000
0%
0)
#4245000000000
1%
1)
#4250000000000
0%
0)
#4270000000000
1%
1)
#4275000000000
0%
0)
#4295000000000
1%
1)
#4300000000000
b1011 !
0%
b1011 &
0)
#4320000000000
1%
1)
#4325000000000
0%
0)
#4345000000000
1%
1)
#4350000000000
0%
0)
#4370000000000
1%
1)
#4375000000000
0%
0)
#4395000000000
1%
1)
#4400000000000
b1100 !
0%
b1100 &
0)
#4420000000000
1%
1)
#4425000000000
0%
0)
#4445000000000
1%
1)
#4450000000000
0%
0)
#4470000000000
1%
1)
#4475000000000
0%
0)
#4495000000000
1%
1)
#4500000000000
b1101 !
0%
b1101 &
0)
#4520000000000
1%
1)
#4525000000000
0%
0)
#4545000000000
1%
1)
#4550000000000
0%
0)
#4570000000000
1%
1)
#4575000000000
0%
0)
#4595000000000
1%
1)
#4600000000000
b1110 !
0%
b1110 &
0)
#4620000000000
1%
1)
#4625000000000
0%
0)
#4645000000000
1%
1)
#4650000000000
0%
0)
#4670000000000
1%
1)
#4675000000000
0%
0)
#4695000000000
1%
1)
#4700000000000
b1111 !
0%
b1111 &
0)
#4720000000000
1%
1)
#4725000000000
0%
0)
#4745000000000
1%
1)
#4750000000000
0%
0)
#4770000000000
1%
1)
#4775000000000
0%
0)
#4795000000000
1%
1)
#4800000000000
b0000 !
1$
0%
b0000 &
1(
0)
#4820000000000
1%
1)
#4825000000000
0%
0)
#4845000000000
1%
1)
#4850000000000
0%
0)
#4870000000000
1%
1)
#4875000000000
0%
0)
#4895000000000
1%
1)
#4900000000000
b0001 !
0%
b0001 &
0)
#4920000000000
1%
1)
#4925000000000
0%
0)
#4945000000000
1%
1)
#4950000000000
0%
0)
#4970000000000
1%
1)
#4975000000000
0%
0)
#4995000000000
1%
1)
#5000000000000
b0010 !
0%
b0010 &
0)
#5020000000000
1%
1)
#5025000000000
0%
0)
#5045000000000
1%
1)
#5050000000000
0%
0)
#5070000000000
1%
1)
#5075000000000
0%
0)
#5095000000000
1%
1)
#5100000000000
b0011 !
0%
b0011 &
0)
#5120000000000
1%
1)
#5125000000000
0%
0)
#5145000000000
1%
1)
#5150000000000
0%
0)
#5170000000000
1%
1)
#5175000000000
0%
0)
#5195000000000
1%
1)
#5200000000000
b0100 !
0%
b0100 &
0)
#5220000000000
1%
1)
#5225000000000
0%
0)
#5245000000000
1%
1)
#5250000000000
0%
0)
#5270000000000
1%
1)
#5275000000000
0%
0)
#5295000000000
1%
1)
#5300000000000
b0101 !
0%
b0101 &
0)
#5320000000000
1%
1)
#5325000000000
0%
0)
#5345000000000
1%
1)
#5350000000000
0%
0)
#5370000000000
1%
1)
#5375000000000
0%
0)
#5395000000000
1%
1)
#5400000000000
b0110 !
0%
b0110 &
0)
#5420000000000
1%
1)
#5425000000000
0%
0)
#5445000000000
1%
1)
#5450000000000
0%
0)
#5470000000000
1%
1)
#5475000000000
0%
0)
#5495000000000
1%
1)
#5500000000000
b0111 !
0%
b0111 &
0)
#5520000000000
1%
1)
#5525000000000
0%
0)
#5545000000000
1%
1)
#5550000000000
0%
0)
#5570000000000
1%
1)
#5575000000000
0%
0)
#5595000000000
1%
1)
#5600000000000
b1000 !
0%
b1000 &
0)
#5620000000000
1%
1)
#5625000000000
0%
0)
#5645000000000
1%
1)
#5650000000000
0%
0)
#5670000000000
1%
1)
#5675000000000
0%
0)
#5695000000000
1%
1)
#5700000000000
b1001 !
0%
b1001 &
0)
#5720000000000
1%
1)
#5725000000000
0%
0)
#5745000000000
1%
1)
#5750000000000
0%
0)
#5770000000000
1%
1)
#5775000000000
0%
0)
#5795000000000
1%
1)
#5800000000000
b1010 !
0%
b1010 &
0)
#5820000000000
1%
1)
#5825000000000
0%
0)
#5845000000000
1%
1)
#5850000000000
0%
0)
#5870000000000
1%
1)
#5875000000000
0%
0)
#5895000000000
1%
1)
#5900000000000
b1011 !
0%
b1011 &
0)
#5920000000000
1%
1)
#5925000000000
0%
0)
#5945000000000
1%
1)
#5950000000000
0%
0)
#5970000000000
1%
1)
#5975000000000
0%
0)
#5995000000000
1%
1)
#6000000000000
b1100 !
0%
b1100 &
0)
#6020000000000
1%
1)
#6025000000000
0%
0)
#6045000000000
1%
1)
#6050000000000
0%
0)
#6070000000000
1%
1)
#6075000000000
0%
0)
#6095000000000
1%
1)
#6100000000000
b1101 !
0%
b1101 &
0)
#6120000000000
1%
1)
#6125000000000
0%
0)
#6145000000000
1%
1)
#6150000000000
0%
0)
#6170000000000
1%
1)
#6175000000000
0%
0)
#6195000000000
1%
1)
#6200000000000
b1110 !
0%
b1110 &
0)
#6220000000000
1%
1)
#6225000000000
0%
0)
#6245000000000
1%
1)
#6250000000000
0%
0)
#6270000000000
1%
1)
#6275000000000
0%
0)
#6295000000000
1%
1)
#6300000000000
b1111 !
0%
b1111 &
0)
